12 0.07 1.01988133333 30.1424 0.00833333333332 0.00783333333332 0.0 1.07092082832e+32 1.03596e+32 0.967354423039 1.07092082832e+32 1.03596e+32 1.1 1.0
12 0.07 0.98161 28.9896 0.00833333333332 0.00783333333332 0.15 9.8399244718e+31 9.52491e+31 0.96798608844 9.8399244718e+31 9.52491e+31 1.1 1.0
12 0.07 0.869288 25.5144 0.00833333333332 0.00783333333332 0.3 7.577592667e+31 7.36572e+31 0.972039580865 7.577592667e+31 7.36572e+31 1.1 1.0
12 0.08 1.41583866667 36.618 0.00833333333332 0.00783333333332 0.0 2.17064775702e+32 2.05702e+32 0.947652604319 2.17064775702e+32 2.05702e+32 1.1 1.0
12 0.08 1.36136933333 35.2572 0.00833333333332 0.00783333333332 0.15 1.98787539776e+32 1.89374e+32 0.952645222197 1.98787539776e+32 1.89374e+32 1.1 1.0
12 0.08 1.20174133333 31.1473 0.00833333333332 0.00783333333332 0.3 1.5030621638e+32 1.44199e+32 0.959368171676 1.5030621638e+32 1.44199e+32 1.1 1.0
12 0.09 1.898456 43.2567 0.00833333333332 0.00783333333332 0.0 4.187742293e+32 3.86768e+32 0.923571635835 4.187742293e+32 3.86768e+32 1.1 1.0
12 0.09 1.823892 41.6875 0.00833333333332 0.00783333333332 0.15 3.7874286415e+32 3.5192e+32 0.929179222399 3.7874286415e+32 3.5192e+32 1.1 1.0
12 0.09 1.60560866667 36.9422 0.00833333333332 0.00783333333332 0.3 2.8759483874e+32 2.69636e+32 0.937555072898 2.8759483874e+32 2.69636e+32 1.1 1.0
12 0.1 2.47548466667 50.0214 0.00833333333332 0.00783333333332 0.0 7.6170119353e+32 6.80374e+32 0.893229531185 7.6170119353e+32 6.80374e+32 1.1 1.0
12 0.1 2.37653733333 48.2433 0.00833333333332 0.00783333333332 0.15 7.051182726e+32 6.33374e+32 0.898252143806 7.051182726e+32 6.33374e+32 1.1 1.0
12 0.1 2.08715266667 42.8617 0.00833333333332 0.00783333333332 0.3 5.1251803051e+32 4.6809e+32 0.913314209715 5.1251803051e+32 4.6809e+32 1.1 1.0
12 0.11 3.15454533333 56.8868 0.00833333333332 0.00783333333332 0.0 1.33037847074e+33 1.14825e+33 0.863100256998 1.33037847074e+33 1.14825e+33 1.1 1.0
12 0.11 3.02655733333 54.8991 0.00833333333332 0.00783333333332 0.15 1.22407417708e+33 1.06316e+33 0.868542135687 1.22407417708e+33 1.06316e+33 1.1 1.0
12 0.11 2.652538 48.8797 0.00833333333332 0.00783333333332 0.3 9.0190897169e+32 7.96975e+32 0.883653478362 9.0190897169e+32 7.96975e+32 1.1 1.0
12 0.12 3.94311866667 63.8353 0.00833333333332 0.00783333333332 0.0 2.14555608833e+33 1.76864e+33 0.824327086866 2.14555608833e+33 1.76864e+33 1.1 1.0
12 0.12 3.78108266667 61.6371 0.00833333333332 0.00783333333332 0.15 1.9603241278e+33 1.63445e+33 0.833765180371 1.9603241278e+33 1.63445e+33 1.1 1.0
12 0.12 3.30782666667 54.9779 0.00833333333332 0.00783333333332 0.3 1.49406216531e+33 1.27439e+33 0.852969862693 1.49406216531e+33 1.27439e+33 1.1 1.0
12 0.13 4.84857333333 70.8547 0.00833333333332 0.00783333333332 0.0 3.21502365884e+33 2.55044e+33 0.793288096959 3.21502365884e+33 2.55044e+33 1.1 1.0
12 0.13 4.64711333333 68.4449 0.00833333333332 0.00783333333332 0.15 2.9880007881e+33 2.40124e+33 0.803627632751 2.9880007881e+33 2.40124e+33 1.1 1.0
12 0.13 4.059006 61.1431 0.00833333333332 0.00783333333332 0.3 2.30877554872e+33 1.88597e+33 0.816870224152 2.30877554872e+33 1.88597e+33 1.1 1.0
12 0.14 5.87813333333 77.9366 0.00833333333332 0.00783333333332 0.0 4.7132510718e+33 3.58699e+33 0.761043692635 4.7132510718e+33 3.58699e+33 1.1 1.0
12 0.14 5.63154666667 75.3136 0.00833333333332 0.00783333333332 0.15 4.3389290385e+33 3.33411e+33 0.768417729448 4.3389290385e+33 3.33411e+33 1.1 1.0
12 0.14 4.91194666667 67.3657 0.00833333333332 0.00783333333332 0.3 3.38570336414e+33 2.66615e+33 0.787473004351 3.38570336414e+33 2.66615e+33 1.1 1.0
12 0.15 7.03887333333 85.0754 0.00833333333332 0.00783333333332 0.0 6.7638822509e+33 4.83905e+33 0.715424932088 6.7638822509e+33 4.83905e+33 1.1 1.0
12 0.15 6.74109333333 82.2373 0.00833333333332 0.00783333333332 0.15 6.2654815364e+33 4.58652e+33 0.732029928323 6.2654815364e+33 4.58652e+33 1.1 1.0
12 0.15 5.87248666667 73.6388 0.00833333333332 0.00783333333332 0.3 4.7806952884e+33 3.6171e+33 0.756605426992 4.7806952884e+33 3.6171e+33 1.1 1.0
12 0.16 8.33774666667 92.2676 0.00833333333332 0.00783333333332 0.0 9.4492822706e+33 6.3947e+33 0.676739229168 9.4492822706e+33 6.3947e+33 1.1 1.0
12 0.16 7.98242666667 89.2123 0.00833333333332 0.00783333333332 0.15 8.7777653411e+33 5.96241e+33 0.679262861139 8.7777653411e+33 5.96241e+33 1.1 1.0
12 0.16 6.94624 79.9577 0.00833333333332 0.00783333333332 0.3 6.709597849e+33 4.8102e+33 0.716913309598 6.709597849e+33 4.8102e+33 1.1 1.0
12 0.17 9.78142666667 99.5114 0.00833333333332 0.00783333333332 0.0 1.32184578387e+34 8.24341e+33 0.623628724363 1.32184578387e+34 8.24341e+33 1.1 1.0
12 0.17 9.36198666667 96.2362 0.00833333333332 0.00783333333332 0.15 1.20418436644e+34 7.67503e+33 0.637363365104 1.20418436644e+34 7.67503e+33 1.1 1.0
12 0.17 8.13885333333 86.319 0.00833333333332 0.00783333333332 0.3 9.3376124976e+33 6.28537e+33 0.673123884892 9.3376124976e+33 6.28537e+33 1.1 1.0
12 0.18 11.3764933333 106.807 0.00833333333332 0.00783333333332 0.0 1.77915911979e+34 1.0141e+34 0.569988366257 1.77915911979e+34 1.0141e+34 1.1 1.0
12 0.18 10.8860733333 103.308 0.00833333333332 0.00783333333332 0.15 1.63913449652e+34 9.64083e+33 0.588165890015 1.63913449652e+34 9.64083e+33 1.1 1.0
12 0.18 9.45574 92.7208 0.00833333333332 0.00783333333332 0.3 1.24785913714e+34 7.81364e+33 0.626163624358 1.24785913714e+34 7.81364e+33 1.1 1.0
12 0.19 13.1292466667 114.155 0.00833333333332 0.00783333333332 0.0 2.10874257736e+34 1.18251e+34 0.560765459329 2.39364654642e+34 1.23986e+34 1.21 1.0
12 0.19 12.56066 110.429 0.00833333333332 0.00783333333332 0.15 1.9453794358e+34 1.11203e+34 0.571626274821 2.19692213692e+34 1.19191e+34 1.21 1.0
12 0.19 10.9023133333 99.1621 0.00833333333332 0.00783333333332 0.3 1.6675667276e+34 9.7414e+33 0.584168527638 1.6675667276e+34 9.7414e+33 1.1 1.0
12 0.2 15.0456133333 121.559 0.00833333333332 0.00783333333332 0.0 2.1837196223e+34 1.27862e+34 0.585523886374 3.13033650055e+34 1.47701e+34 1.4641 1.0
12 0.2 14.3916266667 117.601 0.00833333333332 0.00783333333332 0.15 2.26477753902e+34 1.27392e+34 0.562492332272 2.81679921938e+34 1.38583e+34 1.331 1.0
12 0.2 12.4837066667 105.643 0.00833333333332 0.00783333333332 0.3 1.94239320958e+34 1.10877e+34 0.570826748432 2.17620882842e+34 1.16939e+34 1.21 1.0
12 0.21 17.13124 129.024 0.00833333333332 0.00783333333332 0.0 2.5084676283e+34 1.46157e+34 0.582654519241 4.0066330154e+34 1.69157e+34 1.61051 1.0
12 0.21 16.38448 124.828 0.00833333333332 0.00783333333332 0.15 2.5997966508e+34 1.46624e+34 0.563982571309 3.6271924123e+34 1.61623e+34 1.4641 1.0
12 0.21 14.20496 112.164 0.00833333333332 0.00783333333332 0.3 2.26667720057e+34 1.27585e+34 0.562872384157 2.80581312422e+34 1.38371e+34 1.331 1.0
12 0.22 19.3911666667 136.556 0.00833333333332 0.00783333333332 0.0 2.81612590184e+34 1.61271e+34 0.572669708746 4.54690556e+34 1.87234e+34 1.771561 1.1
12 0.22 18.5443066667 132.114 0.00833333333332 0.00783333333332 0.15 2.8990782976e+34 1.60861e+34 0.554869456728 4.1212404145e+34 1.80251e+34 1.61051 1.1
12 0.22 16.07088 118.728 0.00833333333332 0.00783333333332 0.3 2.54985373616e+34 1.4097e+34 0.552855240286 3.56639561508e+34 1.58075e+34 1.4641 1.0
