12 0.07 1.00664533333 22.8199 0.00833333333332 0.00783333333332 0.0 1.48806567e+32 1.40319e+32 0.942962416437 1.48806567e+32 1.40319e+32 1.1 1.0
12 0.07 0.969818666667 21.8931 0.00833333333332 0.00783333333332 0.15 1.36452585774e+32 1.28694e+32 0.943140793339 1.36452585774e+32 1.28694e+32 1.1 1.0
12 0.07 0.861685333333 19.1119 0.00833333333332 0.00783333333332 0.3 1.06079754983e+32 1.00734e+32 0.94960626574 1.06079754983e+32 1.00734e+32 1.1 1.0
12 0.08 1.38991466667 27.967 0.00833333333332 0.00783333333332 0.0 3.055480189e+32 2.79476e+32 0.914671288023 3.055480189e+32 2.79476e+32 1.1 1.0
12 0.08 1.33764266667 26.8647 0.00833333333332 0.00783333333332 0.15 2.7999281785e+32 2.57223e+32 0.918677135989 2.7999281785e+32 2.57223e+32 1.1 1.0
12 0.08 1.18439466667 23.5489 0.00833333333332 0.00783333333332 0.3 2.11830011844e+32 1.9607e+32 0.925600665804 2.11830011844e+32 1.9607e+32 1.1 1.0
12 0.09 1.855488 33.2814 0.00833333333332 0.00783333333332 0.0 6.0072597903e+32 5.26323e+32 0.876144895298 6.0072597903e+32 5.26323e+32 1.1 1.0
12 0.09 1.78405333333 32.0033 0.00833333333332 0.00783333333332 0.15 5.5083265677e+32 4.8463e+32 0.879813486081 5.5083265677e+32 4.8463e+32 1.1 1.0
12 0.09 1.57490666667 28.1516 0.00833333333332 0.00783333333332 0.3 4.0277718573e+32 3.61459e+32 0.897416767399 4.0277718573e+32 3.61459e+32 1.1 1.0
12 0.1 2.41071466667 38.7254 0.00833333333332 0.00783333333332 0.0 1.11872980318e+33 9.33462e+32 0.834394504684 1.11872980318e+33 9.33462e+32 1.1 1.0
12 0.1 2.31603733333 37.2714 0.00833333333332 0.00783333333332 0.15 1.02538027594e+33 8.63188e+32 0.841822317295 1.02538027594e+33 8.63188e+32 1.1 1.0
12 0.1 2.03914133333 32.8835 0.00833333333332 0.00783333333332 0.3 7.5088008692e+32 6.46748e+32 0.861319951436 7.5088008692e+32 6.46748e+32 1.1 1.0
12 0.11 3.06285333333 44.2725 0.00833333333332 0.00783333333332 0.0 1.95333074321e+33 1.53004e+33 0.783297966982 1.95333074321e+33 1.53004e+33 1.1 1.0
12 0.11 2.94049066667 42.6424 0.00833333333332 0.00783333333332 0.15 1.79615450113e+33 1.41456e+33 0.787549177484 1.79615450113e+33 1.41456e+33 1.1 1.0
12 0.11 2.582944 37.718 0.00833333333332 0.00783333333332 0.3 1.33379613257e+33 1.08446e+33 0.813062786372 1.33379613257e+33 1.08446e+33 1.1 1.0
12 0.12 3.81905066667 49.9034 0.00833333333332 0.00783333333332 0.0 3.11215188476e+33 2.31758e+33 0.74468730506 3.11215188476e+33 2.31758e+33 1.1 1.0
12 0.12 3.664208 48.0969 0.00833333333332 0.00783333333332 0.15 2.8665918454e+33 2.15014e+33 0.750068414326 2.8665918454e+33 2.15014e+33 1.1 1.0
12 0.12 3.21208533333 42.6357 0.00833333333332 0.00783333333332 0.3 2.18654135136e+33 1.69737e+33 0.77628076823 2.18654135136e+33 1.69737e+33 1.1 1.0
12 0.13 4.68637333333 55.6041 0.00833333333332 0.00783333333332 0.0 4.7448929119e+33 3.30771e+33 0.697109515729 4.7448929119e+33 3.30771e+33 1.1 1.0
12 0.13 4.493904 53.6209 0.00833333333332 0.00783333333332 0.15 4.3960558596e+33 3.12104e+33 0.709963681008 4.3960558596e+33 3.12104e+33 1.1 1.0
12 0.13 3.93226133333 47.622 0.00833333333332 0.00783333333332 0.3 3.33117969038e+33 2.434e+33 0.730672082034 3.33117969038e+33 2.434e+33 1.1 1.0
12 0.14 5.67178666667 61.3643 0.00833333333332 0.00783333333332 0.0 6.9883238694e+33 4.57256e+33 0.654314265545 6.9883238694e+33 4.57256e+33 1.1 1.0
12 0.14 5.43621333333 59.2037 0.00833333333332 0.00783333333332 0.15 6.4749579727e+33 4.30333e+33 0.664611263601 6.4749579727e+33 4.30333e+33 1.1 1.0
12 0.14 4.74911466667 52.6659 0.00833333333332 0.00783333333332 0.3 4.951344876e+33 3.42952e+33 0.692644137277 4.951344876e+33 3.42952e+33 1.1 1.0
12 0.15 6.78213333333 67.1763 0.00833333333332 0.00783333333332 0.0 1.02604862529e+34 6.16337e+33 0.60068985505 1.02604862529e+34 6.16337e+33 1.1 1.0
12 0.15 6.49765333333 64.8376 0.00833333333332 0.00783333333332 0.15 9.2549117059e+33 5.69941e+33 0.615825432064 9.2549117059e+33 5.69941e+33 1.1 1.0
12 0.15 5.66821333333 57.7594 0.00833333333332 0.00783333333332 0.3 7.1242960918e+33 4.64028e+33 0.651331716173 7.1242960918e+33 4.64028e+33 1.1 1.0
12 0.16 8.02426666667 73.0344 0.00833333333332 0.00783333333332 0.0 1.43112780383e+34 7.8795e+33 0.55057975807 1.43112780383e+34 7.8795e+33 1.1 1.0
12 0.16 7.68469333333 70.5168 0.00833333333332 0.00783333333332 0.15 1.30354570271e+34 7.32995e+33 0.562308631355 1.30354570271e+34 7.32995e+33 1.1 1.0
12 0.16 6.69504 62.896 0.00833333333332 0.00783333333332 0.3 9.9387385271e+33 6.02041e+33 0.605751925517 9.9387385271e+33 6.02041e+33 1.1 1.0
12 0.17 9.40474666667 78.9347 0.00833333333332 0.00783333333332 0.0 1.5846942262e+34 8.97889e+33 0.566600789701 1.99723321655e+34 9.83201e+33 1.331 1.0
12 0.17 9.00362666667 76.237 0.00833333333332 0.00783333333332 0.15 1.44208305124e+34 8.42345e+33 0.584116843531 1.8497012151e+34 9.40103e+33 1.331 1.0
12 0.17 7.83504 68.071 0.00833333333332 0.00783333333332 0.3 1.37515082225e+34 7.64446e+33 0.555899751235 1.37515082225e+34 7.64446e+33 1.1 1.0
12 0.18 10.9301866667 84.8741 0.00833333333332 0.00783333333332 0.0 1.70655166504e+34 9.99419e+33 0.585636532707 2.7242211869e+34 1.18324e+34 1.61051 1.0
12 0.18 10.4608 81.9951 0.00833333333332 0.00783333333332 0.15 1.77343741728e+34 9.92751e+33 0.559789136243 2.51497135666e+34 1.14155e+34 1.4641 1.0
12 0.18 9.0936 73.2809 0.00833333333332 0.00783333333332 0.3 1.48425264252e+34 8.48871e+33 0.571918132858 1.87791251076e+34 9.4389e+33 1.331 1.0
12 0.19 12.6069866667 90.8509 0.00833333333332 0.00783333333332 0.0 2.02355481527e+34 1.16103e+34 0.573757622595 3.6317574467e+34 1.40197e+34 1.771561 1.0
12 0.19 12.0622933333 87.789 0.00833333333332 0.00783333333332 0.15 1.8509046016e+34 1.08671e+34 0.587123722671 3.31976165814e+34 1.33803e+34 1.771561 1.0
12 0.19 10.4759466667 78.5228 0.00833333333332 0.00783333333332 0.3 1.78179565018e+34 1.00047e+34 0.561495365587 2.5665112589e+34 1.15522e+34 1.4641 1.0
12 0.2 14.4414933333 96.864 0.00833333333332 0.00783333333332 0.0 2.37437643891e+34 1.32422e+34 0.557712744407 4.7739425681e+34 1.62829e+34 1.9487171 1.0
12 0.2 13.8141333333 93.6173 0.00833333333332 0.00783333333332 0.15 2.17540866394e+34 1.24705e+34 0.573248613316 4.48125458765e+34 1.57408e+34 1.9487171 1.0
12 0.2 11.9873066667 83.7948 0.00833333333332 0.00783333333332 0.3 1.83851682501e+34 1.07928e+34 0.58703841342 3.3846640277e+34 1.33934e+34 1.771561 1.0
12 0.21 16.4397866667 102.913 0.00833333333332 0.00783333333332 0.0 2.73549451826e+34 1.50893e+34 0.55161141429 5.5522339936e+34 1.81653e+34 2.14358881 1.1
12 0.21 15.7222933333 99.4796 0.00833333333332 0.00783333333332 0.15 2.49966157167e+34 1.42688e+34 0.570829273919 5.7129503431e+34 1.75922e+34 2.14358881 1.0
12 0.21 13.6328 89.0956 0.00833333333332 0.00783333333332 0.3 2.1485053546e+34 1.25136e+34 0.58243280489 4.41760657384e+34 1.55035e+34 1.9487171 1.0
12 0.22 18.60784 108.999 0.00833333333332 0.00783333333332 0.0 2.76870525215e+34 1.61974e+34 0.585017129845 6.9208720136e+34 2.00884e+34 2.5937424601 1.1
12 0.22 17.7923733333 105.376 0.00833333333332 0.00783333333332 0.15 2.85140084662e+34 1.60274e+34 0.562088631593 6.5634452436e+34 1.98704e+34 2.357947691 1.1
12 0.22 15.4174933333 94.4244 0.00833333333332 0.00783333333332 0.3 2.44414858014e+34 1.39268e+34 0.569801693447 5.0340726664e+34 1.76275e+34 2.14358881 1.1
