12 0.07 0.8492 38.8298 0.00833333333332 0.00783333333332 0.0 9.7625724763e+31 9.43575e+31 0.966522914212 9.7625724763e+31 9.43575e+31 1.1 1.0
12 0.07 0.816793333333 37.4275 0.00833333333332 0.00783333333332 0.15 8.86252441e+31 8.58134e+31 0.968272650433 8.86252441e+31 8.58134e+31 1.1 1.0
12 0.07 0.721686666667 33.1846 0.00833333333332 0.00783333333332 0.3 6.8601455002e+31 6.6649e+31 0.971539160475 6.8601455002e+31 6.6649e+31 1.1 1.0
12 0.08 1.18369333333 46.8115 0.00833333333332 0.00783333333332 0.0 2.00233658717e+32 1.90006e+32 0.948921381238 2.00233658717e+32 1.90006e+32 1.1 1.0
12 0.08 1.13750666667 45.1646 0.00833333333332 0.00783333333332 0.15 1.84281704549e+32 1.74944e+32 0.949329182884 1.84281704549e+32 1.74944e+32 1.1 1.0
12 0.08 1.00213333333 40.1761 0.00833333333332 0.00783333333332 0.3 1.38228617538e+32 1.32511e+32 0.958636513626 1.38228617538e+32 1.32511e+32 1.1 1.0
12 0.09 1.59224333333 54.9524 0.00833333333332 0.00783333333332 0.0 3.8788580308e+32 3.57876e+32 0.92263237571 3.8788580308e+32 3.57876e+32 1.1 1.0
12 0.09 1.52896666667 53.06 0.00833333333332 0.00783333333332 0.15 3.5606999344e+32 3.30081e+32 0.927011559753 3.5606999344e+32 3.30081e+32 1.1 1.0
12 0.09 1.34367666667 47.3235 0.00833333333332 0.00783333333332 0.3 2.65027814488e+32 2.47983e+32 0.935686695674 2.65027814488e+32 2.47983e+32 1.1 1.0
12 0.1 2.08142666667 63.218 0.00833333333332 0.00783333333332 0.0 7.0698623638e+32 6.31096e+32 0.892656698992 7.0698623638e+32 6.31096e+32 1.1 1.0
12 0.1 1.99742333333 61.0788 0.00833333333332 0.00783333333332 0.15 6.5576285496e+32 5.88154e+32 0.896900450447 6.5576285496e+32 5.88154e+32 1.1 1.0
12 0.1 1.75164666667 54.5913 0.00833333333332 0.00783333333332 0.3 4.8598268462e+32 4.4301e+32 0.911575687818 4.8598268462e+32 4.4301e+32 1.1 1.0
12 0.11 2.65767333333 71.5858 0.00833333333332 0.00783333333332 0.0 1.19512526066e+33 1.03046e+33 0.862219245061 1.19512526066e+33 1.03046e+33 1.1 1.0
12 0.11 2.54901 69.1979 0.00833333333332 0.00783333333332 0.15 1.09711827974e+33 9.51159e+32 0.866961217915 1.09711827974e+33 9.51159e+32 1.1 1.0
12 0.11 2.23127333333 61.9553 0.00833333333332 0.00783333333332 0.3 8.1822403312e+32 7.19505e+32 0.879349629045 8.1822403312e+32 7.19505e+32 1.1 1.0
12 0.12 3.32727 80.0413 0.00833333333332 0.00783333333332 0.0 1.86270914274e+33 1.54663e+33 0.830312132212 1.86270914274e+33 1.54663e+33 1.1 1.0
12 0.12 3.18971333333 77.4026 0.00833333333332 0.00783333333332 0.15 1.71846188132e+33 1.42968e+33 0.831953280745 1.71846188132e+33 1.42968e+33 1.1 1.0
12 0.12 2.78769333333 69.3994 0.00833333333332 0.00783333333332 0.3 1.33419253351e+33 1.13105e+33 0.847741215448 1.33419253351e+33 1.13105e+33 1.1 1.0
12 0.13 4.09633333333 88.5758 0.00833333333332 0.00783333333332 0.0 2.82687457818e+33 2.23125e+33 0.789299255518 2.82687457818e+33 2.23125e+33 1.1 1.0
12 0.13 3.9254 85.6834 0.00833333333332 0.00783333333332 0.15 2.6270604356e+33 2.10507e+33 0.801302463953 2.6270604356e+33 2.10507e+33 1.1 1.0
12 0.13 3.42593333333 76.9125 0.00833333333332 0.00783333333332 0.3 2.00859212492e+33 1.64561e+33 0.819285299182 2.00859212492e+33 1.64561e+33 1.1 1.0
12 0.14 4.97086666667 97.1843 0.00833333333332 0.00783333333332 0.0 4.0975108115e+33 3.08892e+33 0.75385280042 4.0975108115e+33 3.08892e+33 1.1 1.0
12 0.14 4.76173333333 94.0347 0.00833333333332 0.00783333333332 0.15 3.81021771e+33 2.9025e+33 0.761767494908 3.81021771e+33 2.9025e+33 1.1 1.0
12 0.14 4.1509 84.4876 0.00833333333332 0.00783333333332 0.3 2.92624113162e+33 2.2956e+33 0.7844876402 2.92624113162e+33 2.2956e+33 1.1 1.0
12 0.15 5.95656666667 105.866 0.00833333333332 0.00783333333332 0.0 5.890002071e+33 4.16233e+33 0.706677170878 5.890002071e+33 4.16233e+33 1.1 1.0
12 0.15 5.70426666667 102.454 0.00833333333332 0.00783333333332 0.15 5.4169285175e+33 3.8942e+33 0.718894478194 5.4169285175e+33 3.8942e+33 1.1 1.0
12 0.15 4.9674 92.1205 0.00833333333332 0.00783333333332 0.3 4.1823709347e+33 3.13428e+33 0.749402683056 4.1823709347e+33 3.13428e+33 1.1 1.0
12 0.16 7.05893333333 114.622 0.00833333333332 0.00783333333332 0.0 8.2808210363e+33 5.42287e+33 0.654871053997 8.2808210363e+33 5.42287e+33 1.1 1.0
12 0.16 6.7583 110.943 0.00833333333332 0.00783333333332 0.15 7.6827472684e+33 5.14362e+33 0.669502694844 7.6827472684e+33 5.14362e+33 1.1 1.0
12 0.16 5.8801 99.809 0.00833333333332 0.00783333333332 0.3 5.8417856145e+33 4.10864e+33 0.703319202574 5.8417856145e+33 4.10864e+33 1.1 1.0
12 0.17 8.28316666667 123.457 0.00833333333332 0.00783333333332 0.0 9.1120467608e+33 6.11383e+33 0.670961218757 9.1120467608e+33 6.11383e+33 1.331 1.21
12 0.17 7.92886666667 119.504 0.00833333333332 0.00783333333332 0.15 9.3903789831e+33 6.13171e+33 0.652977905475 9.3903789831e+33 6.13171e+33 1.21 1.1
12 0.17 6.8935 107.553 0.00833333333332 0.00783333333332 0.3 8.0435419095e+33 5.27727e+33 0.656087835356 8.0435419095e+33 5.27727e+33 1.1 1.0
12 0.18 9.63403333333 132.381 0.00833333333332 0.00783333333332 0.0 9.6689179396e+33 6.67546e+33 0.69040403918 9.6689179396e+33 6.67546e+33 1.61051 1.4641
12 0.18 9.22063333333 128.145 0.00833333333332 0.00783333333332 0.15 1.00392453073e+34 6.72477e+33 0.66984816031 1.00392453073e+34 6.72477e+33 1.4641 1.331
12 0.18 8.01193333333 115.356 0.00833333333332 0.00783333333332 0.3 9.6817896325e+33 6.18234e+33 0.638553432234 9.6817896325e+33 6.18234e+33 1.21 1.1
12 0.19 11.1157666667 141.407 0.00833333333332 0.00783333333332 0.0 1.02021789062e+34 7.33705e+33 0.719165000679 1.02021789062e+34 7.33705e+33 1.9487171 1.771561
12 0.19 10.6379333333 136.874 0.00833333333332 0.00783333333332 0.15 1.03911353462e+34 7.20617e+33 0.693492073764 1.03911353462e+34 7.20617e+33 1.771561 1.61051
12 0.19 9.2395 123.22 0.00833333333332 0.00783333333332 0.3 1.02492542182e+34 6.82306e+33 0.665712826977 1.02492542182e+34 6.82306e+33 1.4641 1.331
12 0.2 12.7317 150.554 0.00833333333332 0.00783333333332 0.0 1.17734440064e+34 8.29815e+33 0.704819252165 1.17734440064e+34 8.29815e+33 2.14358881 1.9487171
12 0.2 12.1843666667 145.707 0.00833333333332 0.00783333333332 0.15 1.07727574688e+34 7.77557e+33 0.721780846039 1.07727574688e+34 7.77557e+33 2.14358881 1.9487171
12 0.2 10.58 131.151 0.00833333333332 0.00783333333332 0.3 1.05266517772e+34 7.31265e+33 0.694679576638 1.05266517772e+34 7.31265e+33 1.771561 1.61051
12 0.21 14.4841 159.853 0.00833333333332 0.00783333333332 0.0 1.2101287351e+34 8.88178e+33 0.733953317724 1.2101287351e+34 8.88178e+33 2.5937424601 2.357947691
12 0.21 13.8626666667 154.667 0.00833333333332 0.00783333333332 0.15 1.24714636661e+34 8.91215e+33 0.714603372836 1.24714636661e+34 8.91215e+33 2.357947691 2.14358881
12 0.21 12.0368 139.161 0.00833333333332 0.00783333333332 0.3 1.20652471124e+34 8.28176e+33 0.686414453251 1.20652471124e+34 8.28176e+33 1.9487171 1.771561
12 0.22 19.0616666667 139.53 0.00833333333332 0.00783333333332 0.0 1.84110628704e+34 1.27782e+34 0.694050098571 1.84110628704e+34 1.27782e+34 3.13842837672 2.85311670611
12 0.22 15.6741333333 163.787 0.00833333333332 0.00783333333332 0.15 1.2506457912e+34 9.31503e+33 0.744817602677 1.2506457912e+34 9.31503e+33 2.85311670611 2.5937424601
12 0.22 13.6128333333 147.259 0.00833333333332 0.00783333333332 0.3 1.22959501412e+34 8.84887e+33 0.719657277265 1.22959501412e+34 8.84887e+33 2.357947691 2.14358881
