12 0.07 0.880814666667 22.8199 0.00833333333332 0.00783333333332 0.0 1.13751253065e+32 1.08231e+32 0.95147083732 1.13751253065e+32 1.08231e+32 1.1 1.0
12 0.07 0.848591333333 21.8931 0.00833333333332 0.00783333333332 0.15 1.04256541618e+32 9.94342e+31 0.95374542889 1.04256541618e+32 9.94342e+31 1.1 1.0
12 0.07 0.753974666667 19.1119 0.00833333333332 0.00783333333332 0.3 8.1893787552e+31 7.8429e+31 0.957691692428 8.1893787552e+31 7.8429e+31 1.1 1.0
12 0.08 1.21617533333 27.967 0.00833333333332 0.00783333333332 0.0 2.28250682366e+32 2.11785e+32 0.927861410116 2.28250682366e+32 2.11785e+32 1.1 1.0
12 0.08 1.17043733333 26.8647 0.00833333333332 0.00783333333332 0.15 2.08191851356e+32 1.94136e+32 0.932486063866 2.08191851356e+32 1.94136e+32 1.1 1.0
12 0.08 1.03634533333 23.5489 0.00833333333332 0.00783333333332 0.3 1.59757892183e+32 1.50105e+32 0.939577994858 1.59757892183e+32 1.50105e+32 1.1 1.0
12 0.09 1.623552 33.2814 0.00833333333332 0.00783333333332 0.0 4.3967986334e+32 3.93687e+32 0.895394656033 4.3967986334e+32 3.93687e+32 1.1 1.0
12 0.09 1.56104666667 32.0033 0.00833333333332 0.00783333333332 0.15 4.035472828e+32 3.64595e+32 0.903475294073 4.035472828e+32 3.64595e+32 1.1 1.0
12 0.09 1.37804333333 28.1516 0.00833333333332 0.00783333333332 0.3 3.00262780168e+32 2.75209e+32 0.916560486938 3.00262780168e+32 2.75209e+32 1.1 1.0
12 0.1 2.10937533333 38.7254 0.00833333333332 0.00783333333332 0.0 8.2245464913e+32 7.05079e+32 0.857286174679 8.2245464913e+32 7.05079e+32 1.1 1.0
12 0.1 2.02653266667 37.2714 0.00833333333332 0.00783333333332 0.15 7.525989384e+32 6.46961e+32 0.859635812635 7.525989384e+32 6.46961e+32 1.1 1.0
12 0.1 1.78424866667 32.8835 0.00833333333332 0.00783333333332 0.3 5.513739782e+32 4.85459e+32 0.88045322992 5.513739782e+32 4.85459e+32 1.1 1.0
12 0.11 2.67999666667 44.2725 0.00833333333332 0.00783333333332 0.0 1.4546610271e+33 1.18644e+33 0.815612694571 1.4546610271e+33 1.18644e+33 1.1 1.0
12 0.11 2.57292933333 42.6424 0.00833333333332 0.00783333333332 0.15 1.31376303112e+33 1.07945e+33 0.821647416186 1.31376303112e+33 1.07945e+33 1.1 1.0
12 0.11 2.260076 37.718 0.00833333333332 0.00783333333332 0.3 9.607811452e+32 8.06901e+32 0.839838504358 9.607811452e+32 8.06901e+32 1.1 1.0
12 0.12 3.34166933333 49.9034 0.00833333333332 0.00783333333332 0.0 2.3317052584e+33 1.81286e+33 0.777482485605 2.3317052584e+33 1.81286e+33 1.1 1.0
12 0.12 3.206182 48.0969 0.00833333333332 0.00783333333332 0.15 2.1362485955e+33 1.66576e+33 0.779759436008 2.1362485955e+33 1.66576e+33 1.1 1.0
12 0.12 2.81057466667 42.6357 0.00833333333332 0.00783333333332 0.3 1.62273053874e+33 1.30531e+33 0.804391098114 1.62273053874e+33 1.30531e+33 1.1 1.0
12 0.13 4.10057666667 55.6041 0.00833333333332 0.00783333333332 0.0 3.57008842144e+33 2.62114e+33 0.734194700686 3.57008842144e+33 2.62114e+33 1.1 1.0
12 0.13 3.932166 53.6209 0.00833333333332 0.00783333333332 0.15 3.3121063939e+33 2.46282e+33 0.743581185839 3.3121063939e+33 2.46282e+33 1.1 1.0
12 0.13 3.44072866667 47.622 0.00833333333332 0.00783333333332 0.3 2.51911217312e+33 1.93459e+33 0.767965007927 2.51911217312e+33 1.93459e+33 1.1 1.0
12 0.14 4.96281333333 61.3643 0.00833333333332 0.00783333333332 0.0 5.2642918954e+33 3.64402e+33 0.692214655343 5.2642918954e+33 3.64402e+33 1.1 1.0
12 0.14 4.75668666667 59.2037 0.00833333333332 0.00783333333332 0.15 4.8309352822e+33 3.41047e+33 0.705964746116 4.8309352822e+33 3.41047e+33 1.1 1.0
12 0.14 4.15547533333 52.6659 0.00833333333332 0.00783333333332 0.3 3.72046285718e+33 2.72666e+33 0.732881930198 3.72046285718e+33 2.72666e+33 1.1 1.0
12 0.15 5.93436666667 67.1763 0.00833333333332 0.00783333333332 0.0 7.5630147484e+33 4.89333e+33 0.647007861651 7.5630147484e+33 4.89333e+33 1.1 1.0
12 0.15 5.68544666667 64.8376 0.00833333333332 0.00783333333332 0.15 6.9872148711e+33 4.59401e+33 0.657488009851 6.9872148711e+33 4.59401e+33 1.1 1.0
12 0.15 4.95968666667 57.7594 0.00833333333332 0.00783333333332 0.3 5.2733879218e+33 3.63701e+33 0.689691343389 5.2733879218e+33 3.63701e+33 1.1 1.0
12 0.16 7.02123333333 73.0344 0.00833333333332 0.00783333333332 0.0 1.07223745751e+34 6.4443e+33 0.60101425807 1.07223745751e+34 6.4443e+33 1.1 1.0
12 0.16 6.72410666667 70.5168 0.00833333333332 0.00783333333332 0.15 9.7531813742e+33 5.95384e+33 0.610451069407 9.7531813742e+33 5.95384e+33 1.1 1.0
12 0.16 5.85816 62.896 0.00833333333332 0.00783333333332 0.3 7.4687645109e+33 4.84547e+33 0.648764597268 7.4687645109e+33 4.84547e+33 1.1 1.0
12 0.17 8.22915333333 78.9347 0.00833333333332 0.00783333333332 0.0 1.31691070633e+34 7.59164e+33 0.57647340579 1.49690728268e+34 8.0971e+33 1.21 1.0
12 0.17 7.87817333333 76.237 0.00833333333332 0.00783333333332 0.15 1.366175779e+34 7.52839e+33 0.551055736438 1.366175779e+34 7.52839e+33 1.1 1.0
12 0.17 6.85566 68.071 0.00833333333332 0.00783333333332 0.3 1.03650274396e+34 6.14695e+33 0.593047151667 1.03650274396e+34 6.14695e+33 1.1 1.0
12 0.18 9.56391333333 84.8741 0.00833333333332 0.00783333333332 0.0 1.57662253952e+34 8.90597e+33 0.564876486081 2.00358279205e+34 9.79068e+33 1.331 1.0
12 0.18 9.1532 81.9951 0.00833333333332 0.00783333333332 0.15 1.46594435936e+34 8.44928e+33 0.576371125279 1.87107092937e+34 9.50039e+33 1.331 1.0
12 0.18 7.9569 73.2809 0.00833333333332 0.00783333333332 0.3 1.41447735538e+34 7.8502e+33 0.554989443284 1.41447735538e+34 7.8502e+33 1.1 1.0
12 0.19 11.0311133333 90.8509 0.00833333333332 0.00783333333332 0.0 1.90488916522e+34 1.05032e+34 0.551381161265 2.66803496265e+34 1.17145e+34 1.4641 1.0
12 0.19 10.5545066667 87.789 0.00833333333332 0.00783333333332 0.15 1.74287872859e+34 9.90978e+33 0.568586892332 2.52180723236e+34 1.1474e+34 1.4641 1.0
12 0.19 9.16645333333 78.5228 0.00833333333332 0.00783333333332 0.3 1.50070761996e+34 8.57331e+33 0.571284498457 1.87494520346e+34 9.35175e+33 1.331 1.0
12 0.2 12.6363066667 96.864 0.00833333333332 0.00783333333332 0.0 1.98795235866e+34 1.14463e+34 0.575783416043 3.64341666266e+34 1.41745e+34 1.771561 1.0
12 0.2 12.0873666667 93.6173 0.00833333333332 0.00783333333332 0.15 1.81849164378e+34 1.07679e+34 0.59213359802 3.27828661044e+34 1.31538e+34 1.771561 1.0
12 0.2 10.4888933333 83.7948 0.00833333333332 0.00783333333332 0.3 1.76345150297e+34 9.89726e+33 0.561243673746 2.48170109152e+34 1.13862e+34 1.4641 1.0
12 0.21 14.3848133333 102.913 0.00833333333332 0.00783333333332 0.0 2.28409740651e+34 1.30588e+34 0.571726930856 4.7845180665e+34 1.62555e+34 1.9487171 1.0
12 0.21 13.7570066667 99.4796 0.00833333333332 0.00783333333332 0.15 2.35179648362e+34 1.29706e+34 0.551518810847 4.31759079992e+34 1.53508e+34 1.771561 1.0
12 0.21 11.9287 89.0956 0.00833333333332 0.00783333333332 0.3 2.01835649468e+34 1.13235e+34 0.561025766749 3.28828569115e+34 1.32951e+34 1.61051 1.0
12 0.22 16.28186 108.999 0.00833333333332 0.00783333333332 0.0 2.56554883906e+34 1.4508e+34 0.565493035218 6.2555066887e+34 1.82535e+34 2.14358881 1.0
12 0.22 15.5683266667 105.376 0.00833333333332 0.00783333333332 0.15 2.42300967922e+34 1.39691e+34 0.576518538898 5.4248935354e+34 1.69575e+34 2.14358881 1.0
12 0.22 13.4903066667 94.4244 0.00833333333332 0.00783333333332 0.3 2.32162431908e+34 1.29182e+34 0.556429388417 4.2012147522e+34 1.50831e+34 1.771561 1.0
