12 0.07 1.180524 24.8028 0.00833333333332 0.00783333333332 0.0 1.43772636262e+32 1.37606e+32 0.957108414909 1.43772636262e+32 1.37606e+32 1.1 1.0
12 0.07 1.136976 23.8131 0.00833333333332 0.00783333333332 0.15 1.32980474128e+32 1.27333e+32 0.957531553673 1.32980474128e+32 1.27333e+32 1.1 1.0
12 0.07 1.009134 20.8386 0.00833333333332 0.00783333333332 0.3 1.02783150109e+32 9.89126e+31 0.962342561938 1.02783150109e+32 9.89126e+31 1.1 1.0
12 0.08 1.63278 30.3168 0.00833333333332 0.00783333333332 0.0 2.88628697495e+32 2.69733e+32 0.934532852558 2.88628697495e+32 2.69733e+32 1.1 1.0
12 0.08 1.570908 29.1425 0.00833333333332 0.00783333333332 0.15 2.6780731152e+32 2.50829e+32 0.93660250938 2.6780731152e+32 2.50829e+32 1.1 1.0
12 0.08 1.389558 25.6054 0.00833333333332 0.00783333333332 0.3 2.02573960156e+32 1.91818e+32 0.946903540081 2.02573960156e+32 1.91818e+32 1.1 1.0
12 0.09 2.18277 35.9969 0.00833333333332 0.00783333333332 0.0 5.6461977569e+32 5.11005e+32 0.905042688906 5.6461977569e+32 5.11005e+32 1.1 1.0
12 0.09 2.098164 34.6378 0.00833333333332 0.00783333333332 0.15 5.161442426e+32 4.69623e+32 0.909867748663 5.161442426e+32 4.69623e+32 1.1 1.0
12 0.09 1.850502 30.5372 0.00833333333332 0.00783333333332 0.3 3.8067642147e+32 3.50384e+32 0.920424749836 3.8067642147e+32 3.50384e+32 1.1 1.0
12 0.1 2.839242 41.8057 0.00833333333332 0.00783333333332 0.0 1.05389439732e+33 9.11613e+32 0.864994635438 1.05389439732e+33 9.11613e+32 1.1 1.0
12 0.1 2.727066 40.2615 0.00833333333332 0.00783333333332 0.15 9.5784851408e+32 8.37141e+32 0.873980580117 9.5784851408e+32 8.37141e+32 1.1 1.0
12 0.1 2.399004 35.597 0.00833333333332 0.00783333333332 0.3 7.0717946836e+32 6.27814e+32 0.887771814778 7.0717946836e+32 6.27814e+32 1.1 1.0
12 0.11 3.610812 47.7166 0.00833333333332 0.00783333333332 0.0 1.82907110558e+33 1.50849e+33 0.82473010229 1.82907110558e+33 1.50849e+33 1.1 1.0
12 0.11 3.465786 45.9871 0.00833333333332 0.00783333333332 0.15 1.67097307365e+33 1.39128e+33 0.832616648311 1.67097307365e+33 1.39128e+33 1.1 1.0
12 0.11 3.042024 40.7583 0.00833333333332 0.00783333333332 0.3 1.22906086535e+33 1.04716e+33 0.852000116123 1.22906086535e+33 1.04716e+33 1.1 1.0
12 0.12 4.505964 53.7109 0.00833333333332 0.00783333333332 0.0 2.97777297665e+33 2.34594e+33 0.787816941854 2.97777297665e+33 2.34594e+33 1.1 1.0
12 0.12 4.3224 51.7956 0.00833333333332 0.00783333333332 0.15 2.7022829558e+33 2.14544e+33 0.793936103322 2.7022829558e+33 2.14544e+33 1.1 1.0
12 0.12 3.786414 46.0017 0.00833333333332 0.00783333333332 0.3 2.0451956508e+33 1.6675e+33 0.815325418547 2.0451956508e+33 1.6675e+33 1.1 1.0
12 0.13 5.533074 59.7748 0.00833333333332 0.00783333333332 0.0 4.4588276471e+33 3.35649e+33 0.75277410693 4.4588276471e+33 3.35649e+33 1.1 1.0
12 0.13 5.304876 57.6733 0.00833333333332 0.00783333333332 0.15 4.12313448972e+33 3.13215e+33 0.759652639954 4.12313448972e+33 3.13215e+33 1.1 1.0
12 0.13 4.638942 51.313 0.00833333333332 0.00783333333332 0.3 3.13662068913e+33 2.45901e+33 0.783967920801 3.13662068913e+33 2.45901e+33 1.1 1.0
12 0.14 6.70038 65.8985 0.00833333333332 0.00783333333332 0.0 6.5597797332e+33 4.68507e+33 0.714211481262 6.5597797332e+33 4.68507e+33 1.1 1.0
12 0.14 6.42108 63.6099 0.00833333333332 0.00783333333332 0.15 6.0276804318e+33 4.35059e+33 0.721768522606 6.0276804318e+33 4.35059e+33 1.1 1.0
12 0.14 5.606298 56.6817 0.00833333333332 0.00783333333332 0.3 4.5868359596e+33 3.43124e+33 0.748062505444 4.5868359596e+33 3.43124e+33 1.1 1.0
12 0.15 8.01606 72.0748 0.00833333333332 0.00783333333332 0.0 9.4319201356e+33 6.32126e+33 0.670198634967 9.4319201356e+33 6.32126e+33 1.1 1.0
12 0.15 7.67868 69.5983 0.00833333333332 0.00783333333332 0.15 8.658503305e+33 5.89251e+33 0.68054602423 8.658503305e+33 5.89251e+33 1.1 1.0
12 0.15 6.6951 62.0997 0.00833333333332 0.00783333333332 0.3 6.6395642872e+33 4.70151e+33 0.708105200376 6.6395642872e+33 4.70151e+33 1.1 1.0
12 0.16 9.48804 78.2986 0.00833333333332 0.00783333333332 0.0 1.33491240021e+34 8.27095e+33 0.619587472459 1.33491240021e+34 8.27095e+33 1.1 1.0
12 0.16 9.08538 75.6329 0.00833333333332 0.00783333333332 0.15 1.22179695449e+34 7.74046e+33 0.63353079835 1.22179695449e+34 7.74046e+33 1.1 1.0
12 0.16 7.91178 67.5613 0.00833333333332 0.00783333333332 0.3 9.3199889662e+33 6.19987e+33 0.665222890551 9.3199889662e+33 6.19987e+33 1.1 1.0
12 0.17 11.12418 84.5663 0.00833333333332 0.00783333333332 0.0 1.85457260378e+34 1.06167e+34 0.572460737227 1.85457260378e+34 1.06167e+34 1.1 1.0
12 0.17 10.64862 81.7099 0.00833333333332 0.00783333333332 0.15 1.69835913409e+34 9.77852e+33 0.575762793847 1.69835913409e+34 9.77852e+33 1.1 1.0
12 0.17 9.26286 73.0618 0.00833333333332 0.00783333333332 0.3 1.29442797262e+34 8.02459e+33 0.619933296386 1.29442797262e+34 8.02459e+33 1.1 1.0
12 0.18 12.93216 90.8755 0.00833333333332 0.00783333333332 0.0 1.99198741434e+34 1.17474e+34 0.589732641654 2.49485136121e+34 1.28794e+34 1.331 1.0
12 0.18 12.37572 87.8268 0.00833333333332 0.00783333333332 0.15 2.05270138842e+34 1.1572e+34 0.563744929744 2.28602881741e+34 1.21545e+34 1.21 1.0
12 0.18 10.75458 78.5982 0.00833333333332 0.00783333333332 0.3 1.75446868108e+34 1.01074e+34 0.576094638166 1.75446868108e+34 1.01074e+34 1.1 1.0
12 0.19 14.9196 97.2251 0.00833333333332 0.00783333333332 0.0 2.35543984692e+34 1.36246e+34 0.578431243651 3.32230957459e+34 1.54042e+34 1.4641 1.0
12 0.19 14.274 93.982 0.00833333333332 0.00783333333332 0.15 2.42542403772e+34 1.34489e+34 0.554496854605 3.0474933497e+34 1.45915e+34 1.331 1.0
12 0.19 12.39318 84.1679 0.00833333333332 0.00783333333332 0.3 2.07814121736e+34 1.17225e+34 0.564085823527 2.34468720005e+34 1.23665e+34 1.21 1.0
12 0.2 17.0937 103.615 0.00833333333332 0.00783333333332 0.0 2.76659609764e+34 1.56442e+34 0.565467435357 4.2957330268e+34 1.80748e+34 1.61051 1.0
12 0.2 16.35036 100.175 0.00833333333332 0.00783333333332 0.15 2.5201694721e+34 1.44649e+34 0.573965368605 3.9604214004e+34 1.69591e+34 1.61051 1.0
12 0.2 14.18484 89.7695 0.00833333333332 0.00783333333332 0.3 2.4243978741e+34 1.34197e+34 0.553527131143 3.04221204736e+34 1.468e+34 1.331 1.0
12 0.21 19.46166 110.045 0.00833333333332 0.00783333333332 0.0 3.17028177558e+34 1.76932e+34 0.558095502308 5.6373631744e+34 2.08171e+34 1.771561 1.0
12 0.21 18.61176 106.405 0.00833333333332 0.00783333333332 0.15 2.93865539325e+34 1.66659e+34 0.567126721911 5.2031732314e+34 2.00594e+34 1.771561 1.0
12 0.21 16.1355 95.4021 0.00833333333332 0.00783333333332 0.3 2.50047927804e+34 1.4533e+34 0.581208575797 3.98448160307e+34 1.72811e+34 1.61051 1.0
12 0.22 22.03026 116.517 0.00833333333332 0.00783333333332 0.0 3.61187787672e+34 1.99789e+34 0.553144394188 6.3255765242e+34 2.32393e+34 1.9487171 1.1
12 0.22 21.06474 112.674 0.00833333333332 0.00783333333332 0.15 3.33724082684e+34 1.87976e+34 0.563267710524 6.5741188043e+34 2.25489e+34 1.9487171 1.0
12 0.22 18.25098 101.065 0.00833333333332 0.00783333333332 0.3 2.84114776181e+34 1.63673e+34 0.576080562229 5.1072108106e+34 2.00138e+34 1.771561 1.0
